{
    "id":"d2608f23-b4ec-4246-873c-2ede60634b3d",
    "schema":"https://metadata.datadrivendiscovery.org/schemas/v0/pipeline.json",
    "created":"2019-06-17T19:52:43.383226Z",
    "inputs":[
        {
            "name":"input dataset"
        }
    ],
    "outputs":[
        {
            "data":"steps.12.produce",
            "name":"predictions of input dataset"
        }
    ],
    "steps":[
        {
            "type":"PRIMITIVE",
            "primitive":{
                "id":"DSBox-splitter",
                "version":"1.5.3",
                "python_path":"d3m.primitives.data_preprocessing.splitter.DSBOX",
                "name":"DSBox Splitter",
                "digest":"75793a0ddd202eb49093c2bb8fc5546145bc06251a7f06b66a867948876b9ef7"
            },
            "arguments":{
                "inputs":{
                    "type":"CONTAINER",
                    "data":"inputs.0"
                }
            },
            "outputs":[
                {
                    "id":"produce"
                }
            ],
            "hyperparams":{
                "threshold_column_length":{
                    "type":"VALUE",
                    "data":300
                },
                "threshold_row_length":{
                    "type":"VALUE",
                    "data":100000
                },
                "further_reduce_threshold_column_length":{
                    "type":"VALUE",
                    "data":200
                },
                "further_reduce_ratio":{
                    "type":"VALUE",
                    "data":0.5
                }
            }
        },
        {
            "type":"PRIMITIVE",
            "primitive":{
                "id":"f31f8c1f-d1c5-43e5-a4b2-2ae4a761ef2e",
                "version":"0.2.0",
                "python_path":"d3m.primitives.data_transformation.denormalize.Common",
                "name":"Denormalize datasets",
                "digest":"faba42ad3ac07e47f3a47784bb5e7ee74d900fb42b9a0ac4e7ea5253267f8ac4"
            },
            "arguments":{
                "inputs":{
                    "type":"CONTAINER",
                    "data":"steps.0.produce"
                }
            },
            "outputs":[
                {
                    "id":"produce"
                }
            ],
            "hyperparams":{
                "starting_resource":{
                    "type":"VALUE",
                    "data":null
                },
                "recursive":{
                    "type":"VALUE",
                    "data":true
                },
                "many_to_many":{
                    "type":"VALUE",
                    "data":false
                },
                "discard_not_joined_tabular_resources":{
                    "type":"VALUE",
                    "data":false
                }
            }
        },
        {
            "type":"PRIMITIVE",
            "primitive":{
                "id":"4b42ce1e-9b98-4a25-b68e-fad13311eb65",
                "version":"0.3.0",
                "python_path":"d3m.primitives.data_transformation.dataset_to_dataframe.Common",
                "name":"Extract a DataFrame from a Dataset",
                "digest":"4e971e251e548f1188c280c60f4e2f9a460865f21bcfd341114270bdafa4c4dc"
            },
            "arguments":{
                "inputs":{
                    "type":"CONTAINER",
                    "data":"steps.1.produce"
                }
            },
            "outputs":[
                {
                    "id":"produce"
                }
            ]
        },
        {
            "type":"PRIMITIVE",
            "primitive":{
                "id":"4503a4c6-42f7-45a1-a1d4-ed69699cf5e1",
                "version":"0.3.0",
                "python_path":"d3m.primitives.data_transformation.extract_columns_by_semantic_types.DataFrameCommon",
                "name":"Extracts columns by semantic type",
                "digest":"ea473cf02c17ae9d2610be746cb726d91991bc6e39c0c85d1b1550eacd1581be"
            },
            "arguments":{
                "inputs":{
                    "type":"CONTAINER",
                    "data":"steps.2.produce"
                }
            },
            "outputs":[
                {
                    "id":"produce"
                }
            ],
            "hyperparams":{
                "semantic_types":{
                    "type":"VALUE",
                    "data":[
                        "https://metadata.datadrivendiscovery.org/types/PrimaryKey",
                        "https://metadata.datadrivendiscovery.org/types/Attribute"
                    ]
                }
            }
        },
        {
            "type":"PRIMITIVE",
            "primitive":{
                "id":"b2612849-39e4-33ce-bfda-24f3e2cb1e93",
                "version":"1.5.3",
                "python_path":"d3m.primitives.schema_discovery.profiler.DSBOX",
                "name":"DSBox Profiler",
                "digest":"ab952cc58ebb59498eb23ac24969463e75a53f7c0dfecbf4bb5dfb5910a8e1a8"
            },
            "arguments":{
                "inputs":{
                    "type":"CONTAINER",
                    "data":"steps.3.produce"
                }
            },
            "outputs":[
                {
                    "id":"produce"
                }
            ]
        },
        {
            "type":"PRIMITIVE",
            "primitive":{
                "id":"dsbox-featurizer-do-nothing",
                "version":"1.5.3",
                "python_path":"d3m.primitives.data_preprocessing.do_nothing.DSBOX",
                "name":"DSBox do-nothing primitive",
                "digest":"5c9b1d1031286e7632f6c296835844c1c15c6f4054162bd95a81ae52fce8dc7c"
            },
            "arguments":{
                "inputs":{
                    "type":"CONTAINER",
                    "data":"steps.4.produce"
                }
            },
            "outputs":[
                {
                    "id":"produce"
                }
            ]
        },
        {
            "type":"PRIMITIVE",
            "primitive":{
                "id":"18f0bb42-6350-3753-8f2d-d1c3da70f279",
                "version":"1.5.3",
                "python_path":"d3m.primitives.data_preprocessing.encoder.DSBOX",
                "name":"ISI DSBox Data Encoder",
                "digest":"471961eb86bb03e93f3174601c5389f9aa3fd303b7e5453cfe530abf75818915"
            },
            "arguments":{
                "inputs":{
                    "type":"CONTAINER",
                    "data":"steps.5.produce"
                }
            },
            "outputs":[
                {
                    "id":"produce"
                }
            ]
        },
        {
            "type":"PRIMITIVE",
            "primitive":{
                "id":"7ddf2fd8-2f7f-4e53-96a7-0d9f5aeecf93",
                "version":"1.5.3",
                "python_path":"d3m.primitives.data_transformation.to_numeric.DSBOX",
                "name":"ISI DSBox To Numeric DataFrame",
                "digest":"1e2a7dc4889bd453fa0216571ed6bc605ff02607f194082b2e9e5c41f8272058"
            },
            "arguments":{
                "inputs":{
                    "type":"CONTAINER",
                    "data":"steps.6.produce"
                }
            },
            "outputs":[
                {
                    "id":"produce"
                }
            ]
        },
        {
            "type":"PRIMITIVE",
            "primitive":{
                "id":"7894b699-61e9-3a50-ac9f-9bc510466667",
                "version":"1.5.3",
                "python_path":"d3m.primitives.data_preprocessing.mean_imputation.DSBOX",
                "name":"DSBox Mean Imputer",
                "digest":"1d3085d7935401fd139613d26d8d240b3ad57a5e0ae8f420bcb466962992945e"
            },
            "arguments":{
                "inputs":{
                    "type":"CONTAINER",
                    "data":"steps.7.produce"
                }
            },
            "outputs":[
                {
                    "id":"produce"
                }
            ]
        },
        {
            "type":"PRIMITIVE",
            "primitive":{
                "id":"4503a4c6-42f7-45a1-a1d4-ed69699cf5e1",
                "version":"0.3.0",
                "python_path":"d3m.primitives.data_transformation.extract_columns_by_semantic_types.DataFrameCommon",
                "name":"Extracts columns by semantic type",
                "digest":"ea473cf02c17ae9d2610be746cb726d91991bc6e39c0c85d1b1550eacd1581be"
            },
            "arguments":{
                "inputs":{
                    "type":"CONTAINER",
                    "data":"steps.2.produce"
                }
            },
            "outputs":[
                {
                    "id":"produce"
                }
            ],
            "hyperparams":{
                "semantic_types":{
                    "type":"VALUE",
                    "data":[
                        "https://metadata.datadrivendiscovery.org/types/TrueTarget"
                    ]
                }
            }
        },
        {
            "type":"PRIMITIVE",
            "primitive":{
                "id":"7ddf2fd8-2f7f-4e53-96a7-0d9f5aeecf93",
                "version":"1.5.3",
                "python_path":"d3m.primitives.data_transformation.to_numeric.DSBOX",
                "name":"ISI DSBox To Numeric DataFrame",
                "digest":"1e2a7dc4889bd453fa0216571ed6bc605ff02607f194082b2e9e5c41f8272058"
            },
            "arguments":{
                "inputs":{
                    "type":"CONTAINER",
                    "data":"steps.9.produce"
                }
            },
            "outputs":[
                {
                    "id":"produce"
                }
            ],
            "hyperparams":{
                "drop_non_numeric_columns":{
                    "type":"VALUE",
                    "data":false
                }
            }
        },
        {
            "type":"PRIMITIVE",
            "primitive":{
                "id":"1055a114-5c94-33b0-9100-675fd0200e72",
                "version":"2019.4.4",
                "python_path":"d3m.primitives.feature_selection.generic_univariate_select.SKlearn",
                "name":"sklearn.feature_selection.univariate_selection.GenericUnivariateSelect",
                "digest":"ffd60cac765f2956050defa50e9a45c7edf04b5a2dcd4c3ffb8efee9407e4ad3"
            },
            "arguments":{
                "inputs":{
                    "type":"CONTAINER",
                    "data":"steps.8.produce"
                },
                "outputs":{
                    "type":"CONTAINER",
                    "data":"steps.10.produce"
                }
            },
            "outputs":[
                {
                    "id":"produce"
                }
            ],
            "hyperparams":{
                "use_semantic_types":{
                    "type":"VALUE",
                    "data":true
                },
                "return_result":{
                    "type":"VALUE",
                    "data":"new"
                },
                "add_index_columns":{
                    "type":"VALUE",
                    "data":true
                },
                "mode":{
                    "type":"VALUE",
                    "data":"percentile"
                },
                "param":{
                    "type":"VALUE",
                    "data":{
                        "case":"float",
                        "value":10.0
                    }
                }
            }
        },
        {
            "type":"PRIMITIVE",
            "primitive":{
                "id":"01d2c086-91bf-3ca5-b023-5139cf239c77",
                "version":"2019.4.4",
                "python_path":"d3m.primitives.classification.gradient_boosting.SKlearn",
                "name":"sklearn.ensemble.gradient_boosting.GradientBoostingClassifier",
                "digest":"28c1e3094bddacbb334ed96593eb2ee9535e9f3fdd688c3c3673d3e08cf8d565"
            },
            "arguments":{
                "inputs":{
                    "type":"CONTAINER",
                    "data":"steps.11.produce"
                },
                "outputs":{
                    "type":"CONTAINER",
                    "data":"steps.10.produce"
                }
            },
            "outputs":[
                {
                    "id":"produce"
                }
            ],
            "hyperparams":{
                "use_semantic_types":{
                    "type":"VALUE",
                    "data":true
                },
                "return_result":{
                    "type":"VALUE",
                    "data":"new"
                },
                "add_index_columns":{
                    "type":"VALUE",
                    "data":true
                },
                "max_depth":{
                    "type":"VALUE",
                    "data":5
                },
                "n_estimators":{
                    "type":"VALUE",
                    "data":50
                },
                "learning_rate":{
                    "type":"VALUE",
                    "data":0.3
                },
                "min_samples_split":{
                    "type":"VALUE",
                    "data":{
                        "case":"absolute",
                        "value":2
                    }
                },
                "min_samples_leaf":{
                    "type":"VALUE",
                    "data":{
                        "case":"absolute",
                        "value":2
                    }
                }
            }
        }
    ],
    "name":"classification_with_feature_selection:8422078432",
    "description":"",
    "digest":"8317a30d3629c2b19c7d70ec5c2cde7092dd07e242faa0d2402c2a51f66a1155",
    "pipeline_rank":2.560819462227913,
    "metric":"accuracy",
    "metric_value":0.3905,
    "template_name":"classification_with_feature_selection",
    "template_task":"CLASSIFICATION",
    "template_subtask":"{'MULTICLASS', 'BINARY'}",
    "problem_taskType":"classification",
    "problem_taskSubType":"multiClass"
}