{
    "id": "f95713cb-4b74-4333-8de0-63aa78437668",
    "created": "2019-06-16T13:22:51.944217Z",
    "inputs": [
        {
            "name": "inputs"
        }
    ],
    "outputs": [
        {
            "data": "steps.9.produce",
            "name": "output predictions"
        }
    ],
    "pipeline_rank": 1,
    "schema": "https://metadata.datadrivendiscovery.org/schemas/v0/pipeline.json",
    "steps": [
        {
              "type": "PRIMITIVE",
              "primitive": {
                   "id": "f31f8c1f-d1c5-43e5-a4b2-2ae4a761ef2e",
                   "version": "0.2.0",
                   "python_path": "d3m.primitives.data_transformation.denormalize.Common",
                   "name": "Denormalize datasets"
              },
              "arguments": {
                  "inputs": {
                  "type": "CONTAINER",
                  "data": "inputs.0"
                  }
              },
              "outputs": [
                  {
                  "id": "produce"
                  }
              ]
        },
        {
            "type": "PRIMITIVE",
            "primitive": {
                "id": "4b42ce1e-9b98-4a25-b68e-fad13311eb65",
                "version": "0.3.0",
                "python_path": "d3m.primitives.data_transformation.dataset_to_dataframe.Common",
                "name": "Extract a DataFrame from a Dataset"
            },
            "arguments": {
                "inputs": {
                    "type": "CONTAINER",
                    "data": "steps.0.produce"
                }
            },
            "outputs": [
                {
                    "id": "produce"
                }
            ],
            "hyperparams": {
                "dataframe_resource": {
                    "type": "VALUE",
                    "data": null
                }
            }
        },  
        {
            "type": "PRIMITIVE",
            "primitive": {
                "id": "d510cb7a-1782-4f51-b44c-58f0236e47c7",
                "version": "0.5.0",
                "python_path": "d3m.primitives.data_transformation.column_parser.DataFrameCommon",
                "name": "Parses strings into their types"
            },
            "arguments": {
                "inputs": {
                    "type": "CONTAINER",
                    "data": "steps.1.produce"
                }
            },
            "outputs": [
                {
                    "id": "produce"
                }
            ]
        },
        {
            "type": "PRIMITIVE",
            "primitive": {
                "id": "4503a4c6-42f7-45a1-a1d4-ed69699cf5e1",
                "version": "0.2.0",
                "python_path": "d3m.primitives.data_transformation.extract_columns_by_semantic_types.DataFrameCommon",
                "name": "Extracts columns by semantic type"
            },
            "arguments": {
                "inputs": {
                    "type": "CONTAINER",
                    "data": "steps.2.produce"
                }
            },
            "outputs": [
                {
                    "id": "produce"
                }
            ],
            "hyperparams": {
                "semantic_types": {
                    "type": "VALUE",
                    "data": [
                        "https://metadata.datadrivendiscovery.org/types/Attribute"
                    ]
                }
            }
        },
        {
            "type": "PRIMITIVE",
            "primitive": {
                 "id": "0b21fcca-8b35-457d-a65d-36294c6f80a2",
                 "version": "0.1.0",
                 "python_path": "d3m.primitives.data_preprocessing.text_reader.DataFrameCommon",
                 "name": "Columns text reader"
            },
            "arguments": {
                 "inputs": {
                     "type": "CONTAINER",
                     "data": "steps.3.produce"
                 }
            },
            "outputs": [
                {
                     "id": "produce"
                }
            ],
            "hyperparams": {
                 "return_result": {
                     "type": "VALUE",
                      "data": "replace"
                 }
             }
        },
        {
             "type": "PRIMITIVE",
             "primitive": {
                 "id": "0609859b-8ed9-397f-ac7a-7c4f63863560",
                 "version": "2019.6.7",
                 "python_path": "d3m.primitives.data_preprocessing.count_vectorizer.SKlearn",
                 "name": "sklearn.feature_extraction.text.CountVectorizer"
              },
              "arguments": {
                  "inputs": {
                     "type": "CONTAINER",
                     "data": "steps.4.produce"
                  }
              },
              "outputs": [
                  {
                      "id": "produce"
                  }
              ],
             "hyperparams": {
                   "use_semantic_types": {
                          "type": "VALUE",
                          "data": true
                   },
                   "return_result": {
                          "type": "VALUE",
                          "data": "replace" 
                   }
              }
        },
        {
            "arguments": {
                "inputs": {
                    "data": "steps.5.produce",
                    "type": "CONTAINER"
                }
            },
            "hyperparams": {
                "norm": {
                    "data": "l2",
                    "type": "VALUE"
                },
                "smooth_idf": {
                    "data": false,
                    "type": "VALUE"
                },
                "sublinear_tf": {
                    "data": true,
                    "type": "VALUE"
                },
                "use_idf": {
                    "data": false,
                    "type": "VALUE"
                }
            },
            "outputs": [
                {
                    "id": "produce"
                }
            ],
            "primitive": {
                "id": "fefcb78f-c2f5-4557-a23b-0910b2127769",
                "name": "Tfidf Transformer",
                "python_path": "d3m.primitives.feature_extraction.tfidf_vectorizer.BBN",
                "version": "0.1.4"
            },
            "type": "PRIMITIVE"
        },
         {
            "type": "PRIMITIVE",
            "primitive": {
                "id": "4503a4c6-42f7-45a1-a1d4-ed69699cf5e1",
                "version": "0.2.0",
                "python_path": "d3m.primitives.data_transformation.extract_columns_by_semantic_types.DataFrameCommon",
                "name": "Extracts columns by semantic type"
            },
            "arguments": {
                "inputs": {
                    "type": "CONTAINER",
                    "data": "steps.1.produce"
                }
            },
            "outputs": [
                {
                    "id": "produce"
                }
            ],
            "hyperparams": {
                "semantic_types": {
                    "type": "VALUE",
                    "data": [
                        "https://metadata.datadrivendiscovery.org/types/TrueTarget"
                    ]
                }
            }
        },
        {
            "arguments": {
                "inputs": {
                    "data": "steps.6.produce",
                    "type": "CONTAINER"
                },
                "outputs": {
                    "data": "steps.7.produce",
                    "type": "CONTAINER"
                }
            },
            "hyperparams": {
                "activation": {
                    "data": "relu",
                    "type": "VALUE"
                },
                "add_index_columns": {
                    "data": true,
                    "type": "VALUE"
                },
                "alpha": {
                    "data": 0.0001,
                    "type": "VALUE"
                },
                "beta_1": {
                    "data": 0.9,
                    "type": "VALUE"
                },
                "beta_2": {
                    "data": 0.999,
                    "type": "VALUE"
                },
                "early_stopping": {
                    "data": true,
                    "type": "VALUE"
                },
                "epsilon": {
                    "data": 1e-08,
                    "type": "VALUE"
                },
                "exclude_columns": {
                    "data": [],
                    "type": "VALUE"
                },
                "hidden_layer_sizes": {
                    "data": {
                        "encoding": "pickle",
                        "value": "gANjY29weXJlZwpfcmVjb25zdHJ1Y3RvcgpxAGNkM20uY29udGFpbmVyLmxpc3QKTGlzdApxAWNidWlsdGlucwpsaXN0CnECXXEDKEvIS8hlh3EEUnEFfXEGWAgAAABtZXRhZGF0YXEHY2QzbS5tZXRhZGF0YS5iYXNlCkRhdGFNZXRhZGF0YQpxCCmBcQl9cQooWBEAAABfY3VycmVudF9tZXRhZGF0YXELY2QzbS5tZXRhZGF0YS5iYXNlCk1ldGFkYXRhRW50cnkKcQwpgXENTn1xDihYCAAAAGVsZW1lbnRzcQ9jZDNtLnV0aWxzCnBtYXAKcRB9cRGFcRJScRNYDAAAAGFsbF9lbGVtZW50c3EUTmgHY2Zyb3plbmRpY3QKRnJvemVuT3JkZXJlZERpY3QKcRUpgXEWfXEXKFgFAAAAX2RpY3RxGGNjb2xsZWN0aW9ucwpPcmRlcmVkRGljdApxGSlScRpYBQAAAF9oYXNocRtOdWJYCAAAAGlzX2VtcHR5cRyIWBEAAABpc19lbGVtZW50c19lbXB0eXEdiHWGcR5iaBtOdWJzYi4="
                    },
                    "type": "VALUE"
                },
                "learning_rate": {
                    "data": "constant",
                    "type": "VALUE"
                },
                "learning_rate_init": {
                    "data": 0.01,
                    "type": "VALUE"
                },
                "max_iter": {
                    "data": 200,
                    "type": "VALUE"
                },
                "return_result": {
                    "data": "replace",
                    "type": "VALUE"
                },
                "shuffle": {
                    "data": true,
                    "type": "VALUE"
                },
                "solver": {
                    "data": "adam",
                    "type": "VALUE"
                },
                "tol": {
                    "data": 0.0001,
                    "type": "VALUE"
                },
                "use_columns": {
                    "data": [],
                    "type": "VALUE"
                },
                "use_semantic_types": {
                    "data": false,
                    "type": "VALUE"
                },
                "warm_start": {
                    "data": false,
                    "type": "VALUE"
                }
            },
            "outputs": [
                {
                    "id": "produce"
                }
            ],
            "primitive": {
                "id": "cdb18166-e2ca-4418-b5a4-fffbe98f7844",
                "name": "BBN MLP Classifier",
                "python_path": "d3m.primitives.classification.mlp.BBN",
                "version": "0.1.4"
            },
            "type": "PRIMITIVE"
        },    
        {
            "type": "PRIMITIVE",
            "primitive": {
                "id": "8d38b340-f83f-4877-baaa-162f8e551736",
                "version": "0.3.0",
                "python_path": "d3m.primitives.data_transformation.construct_predictions.DataFrameCommon",
                "name": "Construct pipeline predictions output"
            },
            "arguments": {
                "inputs": {
                    "type": "CONTAINER",
                    "data": "steps.8.produce"
                },
                "reference": {
                    "type": "CONTAINER",
                    "data": "steps.1.produce"
                }
            },
            "outputs": [
                {
                    "id": "produce"
                }
            ]
        }
    ]
}
