{
    "id": "03278596-0cdf-41e9-80aa-8793c13d2aef",
    "schema": "https://metadata.datadrivendiscovery.org/schemas/v0/pipeline.json",
    "created": "2019-05-27T21:32:55.500804Z",
    "inputs": [
        {
            "name": "inputs"
        }
    ],
    "outputs": [
        {
            "data": "steps.6.produce",
            "name": "Links"
        }
    ],
    "steps": [
        {
            "type": "PRIMITIVE",
            "primitive": {
                "id": "f31f8c1f-d1c5-43e5-a4b2-2ae4a761ef2e",
                "version": "0.2.0",
                "python_path": "d3m.primitives.data_transformation.denormalize.Common",
                "name": "Denormalize datasets",
                "digest": "3cf3edfbdae9bb9c5ab11dbb6b76eb6c031a061c269d906f88cb232170e0a667"
            },
            "arguments": {
                "inputs": {
                    "type": "CONTAINER",
                    "data": "inputs.0"
                }
            },
            "outputs": [
                {
                    "id": "produce"
                }
            ]
        },
        {
            "type": "PRIMITIVE",
            "primitive": {
                "id": "952b659c-d290-465b-9e89-160947e29c06",
                "version": "0.1.4",
                "python_path": "d3m.primitives.data_preprocessing.targets_reader.TargetsReader",
                "name": "Targets Reader",
                "digest": "548b2f152888868e3924ad0a052a54b714a08ab22ec5d0d25722cca490e268a4"
            },
            "arguments": {
                "inputs": {
                    "type": "CONTAINER",
                    "data": "steps.0.produce"
                }
            },
            "outputs": [
                {
                    "id": "produce"
                }
            ]
        },
        {
            "type": "PRIMITIVE",
            "primitive": {
                "id": "503e69a1-5fc4-4f14-912a-4b564cb1b171",
                "version": "0.1.4",
                "python_path": "d3m.primitives.data_preprocessing.audio_reader.AudioReader",
                "name": "Audio Reader",
                "digest": "c2b00b7e13712cdbd52cb9eb733cb957bf4af02a6f18f32779ff14361b9e76bc"
            },
            "arguments": {
                "inputs": {
                    "type": "CONTAINER",
                    "data": "steps.0.produce"
                }
            },
            "outputs": [
                {
                    "id": "produce"
                }
            ]
        },
        {
            "type": "PRIMITIVE",
            "primitive": {
                "id": "2363d81d-7b05-361d-969b-72f3b5070107",
                "version": "0.0.5",
                "python_path": "d3m.primitives.feature_extraction.audio_featurization.Umich",
                "name": "AudioFeaturization",
                "digest": "9c05d252defadc8e60bf0ed5aadb6728b7c9cd4a481a37758c015c0b0d7b8cd7"
            },
            "arguments": {
                "inputs": {
                    "type": "CONTAINER",
                    "data": "steps.2.produce"
                }
            },
            "outputs": [
                {
                    "id": "produce"
                }
            ]
        },
        {
            "type": "PRIMITIVE",
            "primitive": {
                "id": "37c2b19d-bdab-4a30-ba08-6be49edcc6af",
                "version": "0.4.0",
                "python_path": "d3m.primitives.classification.random_forest.DataFrameCommon",
                "name": "Random forest classifier",
                "digest": "40a3fc575aa70c25f8c1303f61a9daab402a05c18f3d9ba0a6aeb6f5172706ac"
            },
            "arguments": {
                "inputs": {
                    "type": "CONTAINER",
                    "data": "steps.3.produce"
                },
                "outputs": {
                    "type": "CONTAINER",
                    "data": "steps.1.produce"
                }
            },
            "outputs": [
                {
                    "id": "produce"
                }
            ]
        },
        {
            "type": "PRIMITIVE",
            "primitive": {
                "id": "4b42ce1e-9b98-4a25-b68e-fad13311eb65",
                "version": "0.3.0",
                "python_path": "d3m.primitives.data_transformation.dataset_to_dataframe.Common",
                "name": "Extract a DataFrame from a Dataset",
                "digest": "748b3f6c9d26a4323a34a6da464c5de3dcab0d784a127819106acef1466e9550"
            },
            "arguments": {
                "inputs": {
                    "type": "CONTAINER",
                    "data": "steps.0.produce"
                }
            },
            "outputs": [
                {
                    "id": "produce"
                }
            ],
            "hyperparams": {
                "dataframe_resource": {
                    "type": "VALUE",
                    "data": "2"
                }
            }
        },
        {
            "type": "PRIMITIVE",
            "primitive": {
                "id": "8d38b340-f83f-4877-baaa-162f8e551736",
                "version": "0.3.0",
                "python_path": "d3m.primitives.data_transformation.construct_predictions.DataFrameCommon",
                "name": "Construct pipeline predictions output",
                "digest": "bc09b1d3e656bbf5ed10a6b13382e8a52ffd18552f5803f28b25b79fbf25ca52"
            },
            "arguments": {
                "inputs": {
                    "type": "CONTAINER",
                    "data": "steps.4.produce"
                },
                "reference": {
                    "type": "CONTAINER",
                    "data": "steps.5.produce"
                }
            },
            "outputs": [
                {
                    "id": "produce"
                }
            ]
        }
    ],
    "digest": "cbc00681097f18db356be07b8f9949a13b3a4f39d029d9716ae89294d7908a2a"
}