{
    "id": "ed5a308b-16f9-4bf5-98e3-0cbfe68385df",
    "version": "0.2.0",
    "name": "GoogLeNet Convolutional Neural Network",
    "description": "GoogleNet Convolutional Neural Network primitive using PyTorch framework.\nUsed to extract deep features from images.\nIt can be used as a pre-trained feature extractor, to extract features from\nconvolutional layers or the fully connected layers by setting include_top.\nIt can also be fine-tunned to fit new data, by setting feature extraction to False.\nModel pre-trained on ImageNet.\nCitation: https://arxiv.org/pdf/1409.4842.pdf\n\nAttributes\n----------\nmetadata:\n    Primitive's metadata. Available as a class attribute.\nlogger:\n    Primitive's logger. Available as a class attribute.\nhyperparams:\n    Hyperparams passed to the constructor.\nrandom_seed:\n    Random seed passed to the constructor.\ndocker_containers:\n    A dict mapping Docker image keys from primitive's metadata to (named) tuples containing\n    container's address under which the container is accessible by the primitive, and a\n    dict mapping exposed ports to ports on that address.\nvolumes:\n    A dict mapping volume keys from primitive's metadata to file and directory paths\n    where downloaded and extracted files are available to the primitive.\ntemporary_directory:\n    An absolute path to a temporary directory a primitive can use to store any files\n    for the duration of the current pipeline run phase. Directory is automatically\n    cleaned up after the current pipeline run phase finishes.",
    "python_path": "d3m.primitives.feature_extraction.googlenet_cnn.UBC",
    "primitive_family": "FEATURE_EXTRACTION",
    "algorithm_types": [
        "CONVOLUTIONAL_NEURAL_NETWORK"
    ],
    "source": {
        "name": "UBC",
        "contact": "mailto:tonyjos@ubc.cs.ca",
        "uris": [
            "https://github.com/plai-group/ubc_primitives.git"
        ]
    },
    "keywords": [
        "cnn",
        "googlenet",
        "convolutional neural network",
        "deep learning"
    ],
    "installation": [
        {
            "type": "PIP",
            "package_uri": "git+https://github.com/plai-group/ubc_primitives.git@bc94a403f176fe28db2a9ac9d1a48cb9db021f90#egg=ubc_primitives"
        },
        {
            "type": "FILE",
            "key": "googlenet-1378be20.pth",
            "file_uri": "https://download.pytorch.org/models/googlenet-1378be20.pth",
            "file_digest": "1378be20a8e875cf1568b8a71654e704449655e34711a959a38b04fb34905cef"
        }
    ],
    "hyperparams_to_tune": [
        "learning_rate",
        "optimizer_type"
    ],
    "schema": "https://metadata.datadrivendiscovery.org/schemas/v0/primitive.json",
    "original_python_path": "primitives_ubc.googlenet.gnetcnn.GoogleNetCNN",
    "primitive_code": {
        "class_type_arguments": {
            "Inputs": "d3m.container.pandas.DataFrame",
            "Outputs": "d3m.container.pandas.DataFrame",
            "Params": "primitives_ubc.googlenet.gnetcnn.Params",
            "Hyperparams": "primitives_ubc.googlenet.gnetcnn.Hyperparams"
        },
        "interfaces_version": "2020.5.18",
        "interfaces": [
            "supervised_learning.SupervisedLearnerPrimitiveBase",
            "base.PrimitiveBase"
        ],
        "hyperparams": {
            "use_pretrained": {
                "type": "d3m.metadata.hyperparams.UniformBool",
                "default": true,
                "structural_type": "bool",
                "semantic_types": [
                    "https://metadata.datadrivendiscovery.org/types/ControlParameter"
                ],
                "description": "Whether to use pre-trained ImageNet weights"
            },
            "train_endToend": {
                "type": "d3m.metadata.hyperparams.UniformBool",
                "default": false,
                "structural_type": "bool",
                "semantic_types": [
                    "https://metadata.datadrivendiscovery.org/types/ControlParameter"
                ],
                "description": "Whether to train the network end to end or fine-tune the last layer only."
            },
            "feature_extract_only": {
                "type": "d3m.metadata.hyperparams.UniformBool",
                "default": true,
                "structural_type": "bool",
                "semantic_types": [
                    "https://metadata.datadrivendiscovery.org/types/ControlParameter"
                ],
                "description": "Whether to use CNN as feature extraction only without training"
            },
            "include_top": {
                "type": "d3m.metadata.hyperparams.UniformBool",
                "default": true,
                "structural_type": "bool",
                "semantic_types": [
                    "https://metadata.datadrivendiscovery.org/types/ControlParameter"
                ],
                "description": "Whether to use top layers, i.e. final fully connected layers"
            },
            "img_resize": {
                "type": "d3m.metadata.hyperparams.Hyperparameter",
                "default": 224,
                "structural_type": "int",
                "semantic_types": [
                    "https://metadata.datadrivendiscovery.org/types/ControlParameter"
                ],
                "description": "Size to resize the input image"
            },
            "output_dim": {
                "type": "d3m.metadata.hyperparams.Hyperparameter",
                "default": 1000,
                "structural_type": "int",
                "semantic_types": [
                    "https://metadata.datadrivendiscovery.org/types/ControlParameter"
                ],
                "description": "Dimensions of CNN output."
            },
            "last_activation_type": {
                "type": "d3m.metadata.hyperparams.Enumeration",
                "default": "linear",
                "structural_type": "str",
                "semantic_types": [
                    "https://metadata.datadrivendiscovery.org/types/ControlParameter"
                ],
                "description": "Type of activation (non-linearity) following the last layer.",
                "values": [
                    "linear",
                    "relu",
                    "tanh",
                    "sigmoid",
                    "softmax"
                ]
            },
            "loss_type": {
                "type": "d3m.metadata.hyperparams.Enumeration",
                "default": "mse",
                "structural_type": "str",
                "semantic_types": [
                    "https://metadata.datadrivendiscovery.org/types/ControlParameter"
                ],
                "description": "Type of loss used for the local training (fit) of this primitive.",
                "values": [
                    "mse",
                    "crossentropy",
                    "l1"
                ]
            },
            "optimizer_type": {
                "type": "d3m.metadata.hyperparams.Enumeration",
                "default": "adam",
                "structural_type": "str",
                "semantic_types": [
                    "https://metadata.datadrivendiscovery.org/types/ControlParameter"
                ],
                "description": "Type of optimizer used during training (fit).",
                "values": [
                    "adam",
                    "sgd"
                ]
            },
            "minibatch_size": {
                "type": "d3m.metadata.hyperparams.Hyperparameter",
                "default": 32,
                "structural_type": "int",
                "semantic_types": [
                    "https://metadata.datadrivendiscovery.org/types/ControlParameter"
                ],
                "description": "Minibatch size used during training (fit)."
            },
            "learning_rate": {
                "type": "d3m.metadata.hyperparams.Hyperparameter",
                "default": 0.0001,
                "structural_type": "float",
                "semantic_types": [
                    "https://metadata.datadrivendiscovery.org/types/TuningParameter"
                ],
                "description": "Learning rate used during training (fit)."
            },
            "momentum": {
                "type": "d3m.metadata.hyperparams.Hyperparameter",
                "default": 0.9,
                "structural_type": "float",
                "semantic_types": [
                    "https://metadata.datadrivendiscovery.org/types/ControlParameter"
                ],
                "description": "Momentum used during training (fit), only for optimizer_type sgd."
            },
            "weight_decay": {
                "type": "d3m.metadata.hyperparams.Hyperparameter",
                "default": 0.0001,
                "structural_type": "float",
                "semantic_types": [
                    "https://metadata.datadrivendiscovery.org/types/ControlParameter"
                ],
                "description": "Weight decay (L2 regularization) used during training (fit)."
            },
            "shuffle": {
                "type": "d3m.metadata.hyperparams.UniformBool",
                "default": true,
                "structural_type": "bool",
                "semantic_types": [
                    "https://metadata.datadrivendiscovery.org/types/ControlParameter"
                ],
                "description": "Shuffle minibatches in each epoch of training (fit)."
            },
            "fit_threshold": {
                "type": "d3m.metadata.hyperparams.Hyperparameter",
                "default": 1e-05,
                "structural_type": "float",
                "semantic_types": [
                    "https://metadata.datadrivendiscovery.org/types/ControlParameter"
                ],
                "description": "Threshold of loss value to early stop training (fit)."
            },
            "num_iterations": {
                "type": "d3m.metadata.hyperparams.Hyperparameter",
                "default": 100,
                "structural_type": "int",
                "semantic_types": [
                    "https://metadata.datadrivendiscovery.org/types/ControlParameter"
                ],
                "description": "Number of iterations to train the model."
            }
        },
        "arguments": {
            "hyperparams": {
                "type": "primitives_ubc.googlenet.gnetcnn.Hyperparams",
                "kind": "RUNTIME"
            },
            "random_seed": {
                "type": "int",
                "kind": "RUNTIME",
                "default": 0
            },
            "volumes": {
                "type": "typing.Union[NoneType, typing.Dict[str, str]]",
                "kind": "RUNTIME",
                "default": null
            },
            "timeout": {
                "type": "typing.Union[NoneType, float]",
                "kind": "RUNTIME",
                "default": null
            },
            "iterations": {
                "type": "typing.Union[NoneType, int]",
                "kind": "RUNTIME",
                "default": null
            },
            "produce_methods": {
                "type": "typing.Sequence[str]",
                "kind": "RUNTIME"
            },
            "inputs": {
                "type": "d3m.container.pandas.DataFrame",
                "kind": "PIPELINE"
            },
            "outputs": {
                "type": "d3m.container.pandas.DataFrame",
                "kind": "PIPELINE"
            },
            "params": {
                "type": "primitives_ubc.googlenet.gnetcnn.Params",
                "kind": "RUNTIME"
            }
        },
        "class_methods": {},
        "instance_methods": {
            "__init__": {
                "kind": "OTHER",
                "arguments": [
                    "hyperparams",
                    "random_seed",
                    "volumes"
                ],
                "returns": "typing.Any"
            },
            "fit": {
                "kind": "OTHER",
                "arguments": [
                    "timeout",
                    "iterations"
                ],
                "returns": "d3m.primitive_interfaces.base.CallResult[NoneType]",
                "description": "Inputs: Dataset dataFrame\nReturns: None\n\nParameters\n----------\ntimeout:\n    A maximum time this primitive should be fitting during this method call, in seconds.\niterations:\n    How many of internal iterations should the primitive do.\n\nReturns\n-------\nA ``CallResult`` with ``None`` value."
            },
            "fit_multi_produce": {
                "kind": "OTHER",
                "arguments": [
                    "produce_methods",
                    "inputs",
                    "outputs",
                    "timeout",
                    "iterations"
                ],
                "returns": "d3m.primitive_interfaces.base.MultiCallResult",
                "description": "A method calling ``fit`` and after that multiple produce methods at once.\n\nThis method allows primitive author to implement an optimized version of both fitting\nand producing a primitive on same data.\n\nIf any additional method arguments are added to primitive's ``set_training_data`` method\nor produce method(s), or removed from them, they have to be added to or removed from this\nmethod as well. This method should accept an union of all arguments accepted by primitive's\n``set_training_data`` method and produce method(s) and then use them accordingly when\ncomputing results.\n\nThe default implementation of this method just calls first ``set_training_data`` method,\n``fit`` method, and all produce methods listed in ``produce_methods`` in order and is\npotentially inefficient.\n\nParameters\n----------\nproduce_methods:\n    A list of names of produce methods to call.\ninputs:\n    The inputs given to ``set_training_data`` and all produce methods.\noutputs:\n    The outputs given to ``set_training_data``.\ntimeout:\n    A maximum time this primitive should take to both fit the primitive and produce outputs\n    for all produce methods listed in ``produce_methods`` argument, in seconds.\niterations:\n    How many of internal iterations should the primitive do for both fitting and producing\n    outputs of all produce methods.\n\nReturns\n-------\nA dict of values for each produce method wrapped inside ``MultiCallResult``."
            },
            "get_params": {
                "kind": "OTHER",
                "arguments": [],
                "returns": "primitives_ubc.googlenet.gnetcnn.Params",
                "description": "Returns parameters of this primitive.\n\nParameters are all parameters of the primitive which can potentially change during a life-time of\na primitive. Parameters which cannot are passed through constructor.\n\nParameters should include all data which is necessary to create a new instance of this primitive\nbehaving exactly the same as this instance, when the new instance is created by passing the same\nparameters to the class constructor and calling ``set_params``.\n\nNo other arguments to the method are allowed (except for private arguments).\n\nReturns\n-------\nAn instance of parameters."
            },
            "multi_produce": {
                "kind": "OTHER",
                "arguments": [
                    "produce_methods",
                    "inputs",
                    "timeout",
                    "iterations"
                ],
                "returns": "d3m.primitive_interfaces.base.MultiCallResult",
                "description": "A method calling multiple produce methods at once.\n\nWhen a primitive has multiple produce methods it is common that they might compute the\nsame internal results for same inputs but return different representations of those results.\nIf caller is interested in multiple of those representations, calling multiple produce\nmethods might lead to recomputing same internal results multiple times. To address this,\nthis method allows primitive author to implement an optimized version which computes\ninternal results only once for multiple calls of produce methods, but return those different\nrepresentations.\n\nIf any additional method arguments are added to primitive's produce method(s), they have\nto be added to this method as well. This method should accept an union of all arguments\naccepted by primitive's produce method(s) and then use them accordingly when computing\nresults.\n\nThe default implementation of this method just calls all produce methods listed in\n``produce_methods`` in order and is potentially inefficient.\n\nIf primitive should have been fitted before calling this method, but it has not been,\nprimitive should raise a ``PrimitiveNotFittedError`` exception.\n\nParameters\n----------\nproduce_methods:\n    A list of names of produce methods to call.\ninputs:\n    The inputs given to all produce methods.\ntimeout:\n    A maximum time this primitive should take to produce outputs for all produce methods\n    listed in ``produce_methods`` argument, in seconds.\niterations:\n    How many of internal iterations should the primitive do.\n\nReturns\n-------\nA dict of values for each produce method wrapped inside ``MultiCallResult``."
            },
            "produce": {
                "kind": "PRODUCE",
                "arguments": [
                    "inputs",
                    "iterations",
                    "timeout"
                ],
                "returns": "d3m.primitive_interfaces.base.CallResult[d3m.container.pandas.DataFrame]",
                "singleton": false,
                "inputs_across_samples": [],
                "description": "Inputs: Dataset dataFrame\nReturns: Pandas DataFramefor for classification or regression task\n\nParameters\n----------\ninputs:\n    The inputs of shape [num_inputs, ...].\ntimeout:\n    A maximum time this primitive should take to produce outputs during this method call, in seconds.\niterations:\n    How many of internal iterations should the primitive do.\n\nReturns\n-------\nThe outputs of shape [num_inputs, ...] wrapped inside ``CallResult``."
            },
            "set_params": {
                "kind": "OTHER",
                "arguments": [
                    "params"
                ],
                "returns": "NoneType",
                "description": "Sets parameters of this primitive.\n\nParameters are all parameters of the primitive which can potentially change during a life-time of\na primitive. Parameters which cannot are passed through constructor.\n\nNo other arguments to the method are allowed (except for private arguments).\n\nParameters\n----------\nparams:\n    An instance of parameters."
            },
            "set_training_data": {
                "kind": "OTHER",
                "arguments": [
                    "inputs",
                    "outputs"
                ],
                "returns": "NoneType",
                "description": "Sets current training data of this primitive.\n\nThis marks training data as changed even if new training data is the same as\nprevious training data.\n\nStandard sublasses in this package do not adhere to the Liskov substitution principle when\ninheriting this method because they do not necessary accept all arguments found in the base\nclass. This means that one has to inspect which arguments are accepted at runtime, or in\nother words, one has to inspect which exactly subclass a primitive implements, if\nyou are accepting a wider range of primitives. This relaxation is allowed only for\nstandard subclasses found in this package. Primitives themselves should not break\nthe Liskov substitution principle but should inherit from a suitable base class.\n\nParameters\n----------\ninputs:\n    The inputs.\noutputs:\n    The outputs."
            }
        },
        "class_attributes": {
            "logger": "logging.Logger",
            "metadata": "d3m.metadata.base.PrimitiveMetadata"
        },
        "instance_attributes": {
            "hyperparams": "d3m.metadata.hyperparams.Hyperparams",
            "random_seed": "int",
            "docker_containers": "typing.Dict[str, d3m.primitive_interfaces.base.DockerContainer]",
            "volumes": "typing.Dict[str, str]",
            "temporary_directory": "typing.Union[NoneType, str]"
        },
        "params": {
            "cnn_model": "typing.Union[NoneType, typing.Any]"
        }
    },
    "structural_type": "primitives_ubc.googlenet.gnetcnn.GoogleNetCNN",
    "digest": "abe664217a74cdf1f4530080b17c343e60de440043f27e9ad1a83ec2d83be8af"
}
