{
  "algorithm_types": [
    "MINIMUM_REDUNDANCY_FEATURE_SELECTION"
  ],
  "name": "sklearn.feature_extraction.text.CountVectorizer",
  "primitive_family": "DATA_PREPROCESSING",
  "python_path": "d3m.primitives.data_preprocessing.count_vectorizer.SKlearn",
  "source": {
    "name": "JPL",
    "contact": "mailto:shah@jpl.nasa.gov",
    "uris": [
      "https://gitlab.com/datadrivendiscovery/sklearn-wrap/issues",
      "https://scikit-learn.org/stable/modules/generated/sklearn.feature_extraction.CountVectorizer.html"
    ]
  },
  "version": "2019.11.13",
  "id": "0609859b-8ed9-397f-ac7a-7c4f63863560",
  "hyperparams_to_tune": [
    "max_df",
    "min_df"
  ],
  "installation": [
    {
      "type": "PIP",
      "package_uri": "git+https://gitlab.com/datadrivendiscovery/sklearn-wrap.git@4a2cfd1dc749bb13ce807b2bf2436a45cd49c695#egg=sklearn_wrap"
    }
  ],
  "schema": "https://metadata.datadrivendiscovery.org/schemas/v0/primitive.json",
  "original_python_path": "sklearn_wrap.SKCountVectorizer.SKCountVectorizer",
  "primitive_code": {
    "class_type_arguments": {
      "Inputs": "d3m.container.pandas.DataFrame",
      "Outputs": "d3m.container.pandas.DataFrame",
      "Params": "sklearn_wrap.SKCountVectorizer.Params",
      "Hyperparams": "sklearn_wrap.SKCountVectorizer.Hyperparams"
    },
    "interfaces_version": "2020.1.9",
    "interfaces": [
      "unsupervised_learning.UnsupervisedLearnerPrimitiveBase",
      "base.PrimitiveBase"
    ],
    "hyperparams": {
      "strip_accents": {
        "type": "d3m.metadata.hyperparams.Union",
        "default": null,
        "structural_type": "typing.Union[NoneType, str]",
        "semantic_types": [
          "https://metadata.datadrivendiscovery.org/types/TuningParameter"
        ],
        "description": "Remove accents during the preprocessing step. 'ascii' is a fast method that only works on characters that have an direct ASCII mapping. 'unicode' is a slightly slower method that works on any characters. None (default) does nothing.",
        "configuration": {
          "accents": {
            "type": "d3m.metadata.hyperparams.Enumeration",
            "default": "ascii",
            "structural_type": "str",
            "semantic_types": [
              "https://metadata.datadrivendiscovery.org/types/TuningParameter"
            ],
            "values": [
              "ascii",
              "unicode"
            ]
          },
          "none": {
            "type": "d3m.metadata.hyperparams.Constant",
            "default": null,
            "structural_type": "NoneType",
            "semantic_types": [
              "https://metadata.datadrivendiscovery.org/types/TuningParameter"
            ]
          }
        }
      },
      "analyzer": {
        "type": "d3m.metadata.hyperparams.Enumeration",
        "default": "word",
        "structural_type": "str",
        "semantic_types": [
          "https://metadata.datadrivendiscovery.org/types/TuningParameter"
        ],
        "description": "Whether the feature should be made of word or character n-grams. Option 'char_wb' creates character n-grams only from text inside word boundaries; n-grams at the edges of words are padded with space.  If a callable is passed it is used to extract the sequence of features out of the raw, unprocessed input.",
        "values": [
          "word",
          "char",
          "char_wb"
        ]
      },
      "ngram_range": {
        "type": "d3m.metadata.hyperparams.SortedList",
        "default": [
          1,
          1
        ],
        "structural_type": "typing.Sequence[int]",
        "semantic_types": [
          "https://metadata.datadrivendiscovery.org/types/TuningParameter"
        ],
        "description": "The lower and upper boundary of the range of n-values for different n-grams to be extracted. All values of n such that min_n <= n <= max_n will be used.",
        "elements": {
          "type": "d3m.metadata.hyperparams.Bounded",
          "default": 1,
          "structural_type": "int",
          "semantic_types": [],
          "lower": 1,
          "upper": null,
          "lower_inclusive": true,
          "upper_inclusive": false
        },
        "min_size": 2,
        "max_size": 2,
        "ascending": true
      },
      "stop_words": {
        "type": "d3m.metadata.hyperparams.Union",
        "default": null,
        "structural_type": "typing.Union[NoneType, str, typing.Sequence[str]]",
        "semantic_types": [
          "https://metadata.datadrivendiscovery.org/types/TuningParameter"
        ],
        "description": "If 'english', a built-in stop word list for English is used.  If a list, that list is assumed to contain stop words, all of which will be removed from the resulting tokens. Only applies if ``analyzer == 'word'``.  If None, no stop words will be used. max_df can be set to a value in the range [0.7, 1.0) to automatically detect and filter stop words based on intra corpus document frequency of terms.",
        "configuration": {
          "string": {
            "type": "d3m.metadata.hyperparams.Hyperparameter",
            "default": "english",
            "structural_type": "str",
            "semantic_types": [
              "https://metadata.datadrivendiscovery.org/types/TuningParameter"
            ]
          },
          "list": {
            "type": "d3m.metadata.hyperparams.List",
            "default": [],
            "structural_type": "typing.Sequence[str]",
            "semantic_types": [
              "https://metadata.datadrivendiscovery.org/types/TuningParameter"
            ],
            "elements": {
              "type": "d3m.metadata.hyperparams.Hyperparameter",
              "default": "",
              "structural_type": "str",
              "semantic_types": []
            },
            "is_configuration": false,
            "min_size": 0
          },
          "none": {
            "type": "d3m.metadata.hyperparams.Constant",
            "default": null,
            "structural_type": "NoneType",
            "semantic_types": [
              "https://metadata.datadrivendiscovery.org/types/TuningParameter"
            ]
          }
        }
      },
      "lowercase": {
        "type": "d3m.metadata.hyperparams.UniformBool",
        "default": true,
        "structural_type": "bool",
        "semantic_types": [
          "https://metadata.datadrivendiscovery.org/types/TuningParameter"
        ],
        "description": "Convert all characters to lowercase before tokenizing."
      },
      "token_pattern": {
        "type": "d3m.metadata.hyperparams.Hyperparameter",
        "default": "(?u)\\b\\w\\w+\\b",
        "structural_type": "str",
        "semantic_types": [
          "https://metadata.datadrivendiscovery.org/types/TuningParameter"
        ],
        "description": "Regular expression denoting what constitutes a \"token\", only used if ``analyzer == 'word'``. The default regexp select tokens of 2 or more alphanumeric characters (punctuation is completely ignored and always treated as a token separator)."
      },
      "max_df": {
        "type": "d3m.metadata.hyperparams.Union",
        "default": 1.0,
        "structural_type": "typing.Union[float, int]",
        "semantic_types": [
          "https://metadata.datadrivendiscovery.org/types/TuningParameter"
        ],
        "description": "When building the vocabulary ignore terms that have a document frequency strictly higher than the given threshold (corpus-specific stop words). If float, the parameter represents a proportion of documents, integer absolute counts. This parameter is ignored if vocabulary is not None.",
        "configuration": {
          "proportion": {
            "type": "d3m.metadata.hyperparams.Bounded",
            "default": 1.0,
            "structural_type": "float",
            "semantic_types": [
              "https://metadata.datadrivendiscovery.org/types/TuningParameter"
            ],
            "lower": 0.0,
            "upper": 1.0,
            "lower_inclusive": true,
            "upper_inclusive": true
          },
          "absolute": {
            "type": "d3m.metadata.hyperparams.Bounded",
            "default": 1,
            "structural_type": "int",
            "semantic_types": [
              "https://metadata.datadrivendiscovery.org/types/TuningParameter"
            ],
            "lower": 0,
            "upper": null,
            "lower_inclusive": true,
            "upper_inclusive": false
          }
        }
      },
      "min_df": {
        "type": "d3m.metadata.hyperparams.Union",
        "default": 1,
        "structural_type": "typing.Union[float, int]",
        "semantic_types": [
          "https://metadata.datadrivendiscovery.org/types/TuningParameter"
        ],
        "description": "When building the vocabulary ignore terms that have a document frequency strictly lower than the given threshold. This value is also called cut-off in the literature. If float, the parameter represents a proportion of documents, integer absolute counts. This parameter is ignored if vocabulary is not None.",
        "configuration": {
          "proportion": {
            "type": "d3m.metadata.hyperparams.Bounded",
            "default": 1.0,
            "structural_type": "float",
            "semantic_types": [
              "https://metadata.datadrivendiscovery.org/types/TuningParameter"
            ],
            "lower": 0.0,
            "upper": 1.0,
            "lower_inclusive": true,
            "upper_inclusive": true
          },
          "absolute": {
            "type": "d3m.metadata.hyperparams.Bounded",
            "default": 1,
            "structural_type": "int",
            "semantic_types": [
              "https://metadata.datadrivendiscovery.org/types/TuningParameter"
            ],
            "lower": 0,
            "upper": null,
            "lower_inclusive": true,
            "upper_inclusive": false
          }
        }
      },
      "max_features": {
        "type": "d3m.metadata.hyperparams.Union",
        "default": null,
        "structural_type": "typing.Union[NoneType, int]",
        "semantic_types": [
          "https://metadata.datadrivendiscovery.org/types/TuningParameter"
        ],
        "description": "If not None, build a vocabulary that only consider the top max_features ordered by term frequency across the corpus.  This parameter is ignored if vocabulary is not None.",
        "configuration": {
          "absolute": {
            "type": "d3m.metadata.hyperparams.Bounded",
            "default": 1,
            "structural_type": "int",
            "semantic_types": [
              "https://metadata.datadrivendiscovery.org/types/TuningParameter"
            ],
            "lower": 0,
            "upper": null,
            "lower_inclusive": true,
            "upper_inclusive": false
          },
          "none": {
            "type": "d3m.metadata.hyperparams.Constant",
            "default": null,
            "structural_type": "NoneType",
            "semantic_types": [
              "https://metadata.datadrivendiscovery.org/types/TuningParameter"
            ]
          }
        }
      },
      "binary": {
        "type": "d3m.metadata.hyperparams.UniformBool",
        "default": false,
        "structural_type": "bool",
        "semantic_types": [
          "https://metadata.datadrivendiscovery.org/types/TuningParameter"
        ],
        "description": "If True, all non zero counts are set to 1. This is useful for discrete probabilistic models that model binary events rather than integer counts."
      },
      "use_columns": {
        "type": "d3m.metadata.hyperparams.Set",
        "default": [],
        "structural_type": "typing.Sequence[int]",
        "semantic_types": [
          "https://metadata.datadrivendiscovery.org/types/ControlParameter"
        ],
        "description": "A set of column indices to force primitive to operate on. If any specified column cannot be parsed, it is skipped.",
        "elements": {
          "type": "d3m.metadata.hyperparams.Hyperparameter",
          "default": -1,
          "structural_type": "int",
          "semantic_types": []
        },
        "is_configuration": false,
        "min_size": 0
      },
      "exclude_columns": {
        "type": "d3m.metadata.hyperparams.Set",
        "default": [],
        "structural_type": "typing.Sequence[int]",
        "semantic_types": [
          "https://metadata.datadrivendiscovery.org/types/ControlParameter"
        ],
        "description": "A set of column indices to not operate on. Applicable only if \"use_columns\" is not provided.",
        "elements": {
          "type": "d3m.metadata.hyperparams.Hyperparameter",
          "default": -1,
          "structural_type": "int",
          "semantic_types": []
        },
        "is_configuration": false,
        "min_size": 0
      },
      "return_result": {
        "type": "d3m.metadata.hyperparams.Enumeration",
        "default": "new",
        "structural_type": "str",
        "semantic_types": [
          "https://metadata.datadrivendiscovery.org/types/ControlParameter"
        ],
        "description": "Should parsed columns be appended, should they replace original columns, or should only parsed columns be returned? This hyperparam is ignored if use_semantic_types is set to false.",
        "values": [
          "append",
          "replace",
          "new"
        ]
      },
      "use_semantic_types": {
        "type": "d3m.metadata.hyperparams.UniformBool",
        "default": false,
        "structural_type": "bool",
        "semantic_types": [
          "https://metadata.datadrivendiscovery.org/types/ControlParameter"
        ],
        "description": "Controls whether semantic_types metadata will be used for filtering columns in input dataframe. Setting this to false makes the code ignore return_result and will produce only the output dataframe"
      },
      "add_index_columns": {
        "type": "d3m.metadata.hyperparams.UniformBool",
        "default": false,
        "structural_type": "bool",
        "semantic_types": [
          "https://metadata.datadrivendiscovery.org/types/ControlParameter"
        ],
        "description": "Also include primary index columns if input data has them. Applicable only if \"return_result\" is set to \"new\"."
      },
      "error_on_no_input": {
        "type": "d3m.metadata.hyperparams.UniformBool",
        "default": true,
        "structural_type": "bool",
        "semantic_types": [
          "https://metadata.datadrivendiscovery.org/types/ControlParameter"
        ],
        "description": "Throw an exception if no input column is selected/provided. Defaults to true to behave like sklearn. To prevent pipelines from breaking set this to False."
      }
    },
    "arguments": {
      "hyperparams": {
        "type": "sklearn_wrap.SKCountVectorizer.Hyperparams",
        "kind": "RUNTIME"
      },
      "random_seed": {
        "type": "int",
        "kind": "RUNTIME",
        "default": 0
      },
      "docker_containers": {
        "type": "typing.Union[NoneType, typing.Dict[str, d3m.primitive_interfaces.base.DockerContainer]]",
        "kind": "RUNTIME",
        "default": null
      },
      "timeout": {
        "type": "typing.Union[NoneType, float]",
        "kind": "RUNTIME",
        "default": null
      },
      "iterations": {
        "type": "typing.Union[NoneType, int]",
        "kind": "RUNTIME",
        "default": null
      },
      "produce_methods": {
        "type": "typing.Sequence[str]",
        "kind": "RUNTIME"
      },
      "inputs": {
        "type": "d3m.container.pandas.DataFrame",
        "kind": "PIPELINE"
      },
      "params": {
        "type": "sklearn_wrap.SKCountVectorizer.Params",
        "kind": "RUNTIME"
      }
    },
    "class_methods": {},
    "instance_methods": {
      "__init__": {
        "kind": "OTHER",
        "arguments": [
          "hyperparams",
          "random_seed",
          "docker_containers"
        ],
        "returns": "NoneType"
      },
      "fit": {
        "kind": "OTHER",
        "arguments": [
          "timeout",
          "iterations"
        ],
        "returns": "d3m.primitive_interfaces.base.CallResult[NoneType]",
        "description": "Fits primitive using inputs and outputs (if any) using currently set training data.\n\nThe returned value should be a ``CallResult`` object with ``value`` set to ``None``.\n\nIf ``fit`` has already been called in the past on different training data,\nthis method fits it **again from scratch** using currently set training data.\n\nOn the other hand, caller can call ``fit`` multiple times on the same training data\nto continue fitting.\n\nIf ``fit`` fully fits using provided training data, there is no point in making further\ncalls to this method with same training data, and in fact further calls can be noops,\nor a primitive can decide to fully refit from scratch.\n\nIn the case fitting can continue with same training data (even if it is maybe not reasonable,\nbecause the internal metric primitive is using looks like fitting will be degrading), if ``fit``\nis called again (without setting training data), the primitive has to continue fitting.\n\nCaller can provide ``timeout`` information to guide the length of the fitting process.\nIdeally, a primitive should adapt its fitting process to try to do the best fitting possible\ninside the time allocated. If this is not possible and the primitive reaches the timeout\nbefore fitting, it should raise a ``TimeoutError`` exception to signal that fitting was\nunsuccessful in the given time. The state of the primitive after the exception should be\nas the method call has never happened and primitive should continue to operate normally.\nThe purpose of ``timeout`` is to give opportunity to a primitive to cleanly manage\nits state instead of interrupting execution from outside. Maintaining stable internal state\nshould have precedence over respecting the ``timeout`` (caller can terminate the misbehaving\nprimitive from outside anyway). If a longer ``timeout`` would produce different fitting,\nthen ``CallResult``'s ``has_finished`` should be set to ``False``.\n\nSome primitives have internal fitting iterations (for example, epochs). For those, caller\ncan provide how many of primitive's internal iterations should a primitive do before returning.\nPrimitives should make iterations as small as reasonable. If ``iterations`` is ``None``,\nthen there is no limit on how many iterations the primitive should do and primitive should\nchoose the best amount of iterations on its own (potentially controlled through\nhyper-parameters). If ``iterations`` is a number, a primitive has to do those number of\niterations (even if not reasonable), if possible. ``timeout`` should still be respected\nand potentially less iterations can be done because of that. Primitives with internal\niterations should make ``CallResult`` contain correct values.\n\nFor primitives which do not have internal iterations, any value of ``iterations``\nmeans that they should fit fully, respecting only ``timeout``.\n\nParameters\n----------\ntimeout : float\n    A maximum time this primitive should be fitting during this method call, in seconds.\niterations : int\n    How many of internal iterations should the primitive do.\n\nReturns\n-------\nCallResult[None]\n    A ``CallResult`` with ``None`` value."
      },
      "fit_multi_produce": {
        "kind": "OTHER",
        "arguments": [
          "produce_methods",
          "inputs",
          "timeout",
          "iterations"
        ],
        "returns": "d3m.primitive_interfaces.base.MultiCallResult",
        "description": "A method calling ``fit`` and after that multiple produce methods at once.\n\nParameters\n----------\nproduce_methods : Sequence[str]\n    A list of names of produce methods to call.\ninputs : Inputs\n    The inputs given to ``set_training_data`` and all produce methods.\ntimeout : float\n    A maximum time this primitive should take to both fit the primitive and produce outputs\n    for all produce methods listed in ``produce_methods`` argument, in seconds.\niterations : int\n    How many of internal iterations should the primitive do for both fitting and producing\n    outputs of all produce methods.\n\nReturns\n-------\nMultiCallResult\n    A dict of values for each produce method wrapped inside ``MultiCallResult``."
      },
      "get_params": {
        "kind": "OTHER",
        "arguments": [],
        "returns": "sklearn_wrap.SKCountVectorizer.Params",
        "description": "Returns parameters of this primitive.\n\nParameters are all parameters of the primitive which can potentially change during a life-time of\na primitive. Parameters which cannot are passed through constructor.\n\nParameters should include all data which is necessary to create a new instance of this primitive\nbehaving exactly the same as this instance, when the new instance is created by passing the same\nparameters to the class constructor and calling ``set_params``.\n\nNo other arguments to the method are allowed (except for private arguments).\n\nReturns\n-------\nParams\n    An instance of parameters."
      },
      "multi_produce": {
        "kind": "OTHER",
        "arguments": [
          "produce_methods",
          "inputs",
          "timeout",
          "iterations"
        ],
        "returns": "d3m.primitive_interfaces.base.MultiCallResult",
        "description": "A method calling multiple produce methods at once.\n\nWhen a primitive has multiple produce methods it is common that they might compute the\nsame internal results for same inputs but return different representations of those results.\nIf caller is interested in multiple of those representations, calling multiple produce\nmethods might lead to recomputing same internal results multiple times. To address this,\nthis method allows primitive author to implement an optimized version which computes\ninternal results only once for multiple calls of produce methods, but return those different\nrepresentations.\n\nIf any additional method arguments are added to primitive's produce method(s), they have\nto be added to this method as well. This method should accept an union of all arguments\naccepted by primitive's produce method(s) and then use them accordingly when computing\nresults.\n\nThe default implementation of this method just calls all produce methods listed in\n``produce_methods`` in order and is potentially inefficient.\n\nIf primitive should have been fitted before calling this method, but it has not been,\nprimitive should raise a ``PrimitiveNotFittedError`` exception.\n\nParameters\n----------\nproduce_methods : Sequence[str]\n    A list of names of produce methods to call.\ninputs : Inputs\n    The inputs given to all produce methods.\ntimeout : float\n    A maximum time this primitive should take to produce outputs for all produce methods\n    listed in ``produce_methods`` argument, in seconds.\niterations : int\n    How many of internal iterations should the primitive do.\n\nReturns\n-------\nMultiCallResult\n    A dict of values for each produce method wrapped inside ``MultiCallResult``."
      },
      "produce": {
        "kind": "PRODUCE",
        "arguments": [
          "inputs",
          "timeout",
          "iterations"
        ],
        "returns": "d3m.primitive_interfaces.base.CallResult[d3m.container.pandas.DataFrame]",
        "singleton": false,
        "inputs_across_samples": [],
        "description": "Produce primitive's best choice of the output for each of the inputs.\n\nThe output value should be wrapped inside ``CallResult`` object before returning.\n\nIn many cases producing an output is a quick operation in comparison with ``fit``, but not\nall cases are like that. For example, a primitive can start a potentially long optimization\nprocess to compute outputs. ``timeout`` and ``iterations`` can serve as a way for a caller\nto guide the length of this process.\n\nIdeally, a primitive should adapt its call to try to produce the best outputs possible\ninside the time allocated. If this is not possible and the primitive reaches the timeout\nbefore producing outputs, it should raise a ``TimeoutError`` exception to signal that the\ncall was unsuccessful in the given time. The state of the primitive after the exception\nshould be as the method call has never happened and primitive should continue to operate\nnormally. The purpose of ``timeout`` is to give opportunity to a primitive to cleanly\nmanage its state instead of interrupting execution from outside. Maintaining stable internal\nstate should have precedence over respecting the ``timeout`` (caller can terminate the\nmisbehaving primitive from outside anyway). If a longer ``timeout`` would produce\ndifferent outputs, then ``CallResult``'s ``has_finished`` should be set to ``False``.\n\nSome primitives have internal iterations (for example, optimization iterations).\nFor those, caller can provide how many of primitive's internal iterations\nshould a primitive do before returning outputs. Primitives should make iterations as\nsmall as reasonable. If ``iterations`` is ``None``, then there is no limit on\nhow many iterations the primitive should do and primitive should choose the best amount\nof iterations on its own (potentially controlled through hyper-parameters).\nIf ``iterations`` is a number, a primitive has to do those number of iterations,\nif possible. ``timeout`` should still be respected and potentially less iterations\ncan be done because of that. Primitives with internal iterations should make\n``CallResult`` contain correct values.\n\nFor primitives which do not have internal iterations, any value of ``iterations``\nmeans that they should run fully, respecting only ``timeout``.\n\nIf primitive should have been fitted before calling this method, but it has not been,\nprimitive should raise a ``PrimitiveNotFittedError`` exception.\n\nParameters\n----------\ninputs : Inputs\n    The inputs of shape [num_inputs, ...].\ntimeout : float\n    A maximum time this primitive should take to produce outputs during this method call, in seconds.\niterations : int\n    How many of internal iterations should the primitive do.\n\nReturns\n-------\nCallResult[Outputs]\n    The outputs of shape [num_inputs, ...] wrapped inside ``CallResult``."
      },
      "set_params": {
        "kind": "OTHER",
        "arguments": [
          "params"
        ],
        "returns": "NoneType",
        "description": "Sets parameters of this primitive.\n\nParameters are all parameters of the primitive which can potentially change during a life-time of\na primitive. Parameters which cannot are passed through constructor.\n\nNo other arguments to the method are allowed (except for private arguments).\n\nParameters\n----------\nparams : Params\n    An instance of parameters."
      },
      "set_training_data": {
        "kind": "OTHER",
        "arguments": [
          "inputs"
        ],
        "returns": "NoneType",
        "description": "Sets training data of this primitive.\n\nParameters\n----------\ninputs : Inputs\n    The inputs."
      }
    },
    "class_attributes": {
      "logger": "logging.Logger",
      "metadata": "d3m.metadata.base.PrimitiveMetadata"
    },
    "instance_attributes": {
      "hyperparams": "d3m.metadata.hyperparams.Hyperparams",
      "random_seed": "int",
      "docker_containers": "typing.Dict[str, d3m.primitive_interfaces.base.DockerContainer]",
      "volumes": "typing.Dict[str, str]",
      "temporary_directory": "typing.Union[NoneType, str]"
    },
    "params": {
      "vocabulary_": "typing.Union[NoneType, typing.Sequence[dict]]",
      "stop_words_": "typing.Union[NoneType, typing.Sequence[set]]",
      "fixed_vocabulary_": "typing.Union[NoneType, typing.Sequence[bool]]",
      "_stop_words_id": "typing.Union[NoneType, typing.Sequence[int]]",
      "target_names_": "typing.Union[NoneType, typing.Sequence[typing.Any]]",
      "training_indices_": "typing.Union[NoneType, typing.Sequence[int]]"
    }
  },
  "structural_type": "sklearn_wrap.SKCountVectorizer.SKCountVectorizer",
  "description": "Primitive wrapping for sklearn CountVectorizer\n`sklearn documentation <https://scikit-learn.org/stable/modules/generated/sklearn.feature_extraction.CountVectorizer.html>`_\n\nAttributes\n----------\nmetadata : PrimitiveMetadata\n    Primitive's metadata. Available as a class attribute.\nlogger : Logger\n    Primitive's logger. Available as a class attribute.\nhyperparams : Hyperparams\n    Hyperparams passed to the constructor.\nrandom_seed : int\n    Random seed passed to the constructor.\ndocker_containers : Dict[str, DockerContainer]\n    A dict mapping Docker image keys from primitive's metadata to (named) tuples containing\n    container's address under which the container is accessible by the primitive, and a\n    dict mapping exposed ports to ports on that address.\nvolumes : Dict[str, str]\n    A dict mapping volume keys from primitive's metadata to file and directory paths\n    where downloaded and extracted files are available to the primitive.\ntemporary_directory : str\n    An absolute path to a temporary directory a primitive can use to store any files\n    for the duration of the current pipeline run phase. Directory is automatically\n    cleaned up after the current pipeline run phase finishes.",
  "digest": "fc14b3c1d0cda6ca40c0890c3688c8ea17130a9f239f9edffdd4cf027835a32d"
}